{
 "remotes": [
  {
   "name": "gitlab",
   "url": "https://gitlab.com/api/v4/packages/conan",
   "verify_ssl": true
  },
  {
   "name": "conancenter",
   "url": "https://center.conan.io",
   "verify_ssl": true
  }
 ]
}